…
g <- dplyr::select(g, COMID, gnis_id, FTYPE,
  FromNode, ToNode)

add_divergence(g,
  coastal_outlet_ids = outlets,
  inland_outlet_ids = c(),
  name_attr = "gnis_id",
  type_attr = "FTYPE",
  major_types = c("StreamRiver", "ArtificialPath", "Connector"))
#> Simple feature collection with 535 features and 6 fields
#> Geometry type: LINESTRING
#> Dimension:     XY
#> Bounding box:  xmin: -124.3627 ymin: 39.82399 xmax: -123.7742 ymax: 40.41246
#> Geodetic CRS:  NAD83
#> # A tibble: 535 × 7
#>      COMID gnis_id FTYPE    FromNode ToNode                      geom divergence
#>  *   <int> <chr>   <chr>       <dbl>  <dbl>          <LINESTRING [°]>      <dbl>
#>  1 2544239 NA      StreamR… 10092685 1.00e7 (-124.2181 40.41246, -12…          0
#>  2 2544241 229695  StreamR… 10004575 1.00e7 (-124.2256 40.39929, -12…          0
#>  3 2544243 NA      StreamR… 10092686 1.00e7 (-124.2439 40.40495, -12…          0
#>  4 2544263 229695  StreamR… 10004579 1.00e7 (-124.2273 40.39801, -12…          0
#>  5 2544287 NA      StreamR… 10092696 1.00e7 (-124.1699 40.39544, -12…          0
#>  6 2544289 229695  StreamR… 10004588 1.00e7 (-124.1867 40.38665, -12…          0
#>  7 2544301 229695  StreamR… 10092697 1.00e7 (-124.1666 40.38338, -12…          0
#>  8 2544303 229695  StreamR… 10004594 1.00e7 (-124.2376 40.39235, -12…          0
#>  9 2544309 NA      StreamR… 10092700 1.00e7 (-124.3126 40.38182, -12…          0
#> 10 2544311 NA      StreamR… 10092701 1.00e7 (-124.2285 40.37687, -12…          0
#> # ℹ 525 more rows
```
